/home/train/Documents/staticwebcode/src/main/java/com/amdocs/Calculator.java
/home/train/Documents/staticwebcode/src/main/java/com/amdocs/config/SpringWebConfig.java
/home/train/Documents/staticwebcode/src/main/java/com/amdocs/web/controller/HelloController.java
/home/train/Documents/staticwebcode/src/main/java/com/amdocs/Increment.java
